…
``` r
pinenut.challenge <- read_csv("https://gist.githubusercontent.com/dialektike/a851a96238b4ae9baf57672a0d2ff0a1/raw/340310f11e92aef9e483431d07e8951cac2661c3/tae_woo.csv")
```

    ## Parsed with column specification:
    ## cols(
    ##   date = col_character(),
    ##   try = col_logical()
    ## )

``` r
pinenut.challenge ## 확인해 보면 날짜가 엉망이다.
```

    ## # A tibble: 48 x 2
    ##    date         try  
    ##    <chr>        <lgl>
    ##  1 2019. 6. 11. TRUE 
    ##  2 2019. 6. 12. TRUE 
    ##  3 2019. 6. 13. TRUE 
    ##  4 2019. 6. 14. TRUE 
    ##  5 2019. 6. 15. TRUE 
    ##  6 2019. 6. 16. TRUE 
    ##  7 2019. 6. 17. TRUE 
    ##  8 2019. 6. 18. TRUE 
    ##  9 2019. 6. 19. TRUE 
    ## 10 2019. 6. 20. TRUE 
    ## # … with 38 more rows

``` r
pinenut.challenge$date <- parse_date(pinenut.challenge$date, "%Y.%*%m.%*%d.")
pinenut.challenge # 고친 것을 확인한다.
```

    ## # A tibble: 48 x 2
    ##    date       try  
    ##    <date>     <lgl>
    ##  1 2019-06-11 TRUE 
    ##  2 2019-06-12 TRUE 
    ##  3 2019-06-13 TRUE 
    ##  4 2019-06-14 TRUE 
    ##  5 2019-06-15 TRUE 
    ##  6 2019-06-16 TRUE 
    ##  7 2019-06-17 TRUE 
    ##  8 2019-06-18 TRUE 
    ##  9 2019-06-19 TRUE 
    ## 10 2019-06-20 TRUE 
    ## # … with 38 more rows
…
